{
  "document": {
    "creator":"AIE",
    "lastModifiedBy":"AIE",
    "title":"AIE: Mitigation Status Load Sheet",
    "subject":"Mitigation Status Load Sheet",
    "description":"Mitigation Status Load Sheet",
    "keywords":"Mitigation Load Status Sheet",
    "protection":{
      "isProtected":true,
      "password":"AIE2018",
      "lockWindow":true,
      "lockStructure":true
    }

  },
  "sheets": {
    "dataSheet": {
      "title": "Pipeline Assessment",
      "isHidden": false,
      "style": {
        "cellWidth": 30,
        "allowedRowsCount": 400,
        "header": {
          "headersCount": 11,
          "headerRows": 1,
          "colNumber": 1,
          "rowNumber": 1,
          "headerColor": "DDDDDD"
        }
      },
      "protection": {
        "isProtected": true,
        "password": "AIE2018",
        "sortProtected": true,
        "insertProtect": true,
        "formatProtected": true
      }
    },
    "sourcesSheet": {
      "title":"Sources",
      "isHidden":true,
      "protection":{
        "isProtected":true,
        "password":"AIE2018",
        "sortProtected":true,
        "insertProtect":true,
        "formatProtected":true
      }
    }
  },
  "columns": [
    {
    "id": "pipelineName",
    "name": "Pipeline Name",
    "hasChild":false,
    "type":"list",
    "mandatory":"1",
    "source":"pipelinesArray",
    "tableInfo": {
      "rowNumber": 1,
      "colNumber": 1,
      "rowSpan": 1,
      "colSpan": 1
    }
    },

    {
      "id": "sectionName",
      "name": "Section Name",
      "hasChild":false,
      "type":"string",
      "mandatory":"1",
      "source":null,
      "tableInfo": {
        "rowNumber":1,
        "colNumber":2,
        "rowSpan":1,
        "colSpan":1
      }
    },

    {
      "id": "startKP",
      "name": "Start KP",
      "hasChild":false,
      "type":"float",
      "mandatory":"1",
      "source":null,
      "tableInfo": {
        "rowNumber":1,
        "colNumber":3,
        "rowSpan":1,
        "colSpan":1
      }
    },

    {
      "id": "endKP",
      "name": "End KP",
      "hasChild":false,
      "type":"float",
      "mandatory":"1",
      "source":null,
      "tableInfo": {
        "rowNumber":1,
        "colNumber":4,
        "rowSpan":1,
        "colSpan":1
      }
    },

    {
      "id": "threat",
      "name": "Threat",
      "hasChild":false,
      "type":"list",
      "mandatory":"1",
      "source":"threatsArray",
      "tableInfo": {
        "rowNumber":1,
        "colNumber":5,
        "rowSpan":1,
        "colSpan":1
      }
    },

    {
      "id": "mitigationTechnique",
      "name": "Mitigation Technique",
      "hasChild":false,
      "type":"list",
      "mandatory":"1",
      "source":"mitigationTechniquesArray",
      "tableInfo": {
        "rowNumber":1,
        "colNumber":6,
        "rowSpan":1,
        "colSpan":1
      }
    },

    {
      "id": "lastInspectionDate",
      "name": "Last Inspection Date",
      "hasChild":false,
      "type":"date",
      "mandatory":"0",
      "source":null,
      "tableInfo": {
        "rowNumber":1,
        "colNumber":7,
        "rowSpan":1,
        "colSpan":1
      }
    },

    {
      "id": "performanceStandard",
      "name": "Performance Standard",
      "hasChild":false,
      "type":"string",
      "mandatory":"0",
      "source":null,
      "tableInfo": {
        "rowNumber":1,
        "colNumber":8,
        "rowSpan":1,
        "colSpan":1
      }
    },

    {
      "id": "mitigationStatus",
      "name": "Mitigation Status",
      "hasChild":false,
      "type":"string",
      "mandatory":"0",
      "source":null,
      "tableInfo": {
        "rowNumber":1,
        "colNumber":9,
        "rowSpan":1,
        "colSpan":1
      }
    },

    {
      "id": "comments",
      "name": "Comments",
      "hasChild":false,
      "type":"string",
      "mandatory":"0",
      "source":null,
      "tableInfo": {
        "rowNumber":1,
        "colNumber":10,
        "rowSpan":1,
        "colSpan":1
      }
    },

    {
      "id": "recommendations",
      "name": "Recommendations",
      "hasChild":false,
      "type":"string",
      "mandatory":"0",
      "source":null,
      "tableInfo": {
        "rowNumber":1,
        "colNumber":11,
        "rowSpan":1,
        "colSpan":1
      }
    }



    ]
}